Chapter 8 AjusteModeloLineal | Analisis para Nacidos Vivos en el hospital Manuel Uribe Angel
…
            Analisis para Nacidos Vivos en el hospital Manuel Uribe Angel

Chapter 8 AjusteModeloLineal

## # A tibble: 1,976 × 2
##    FECHA      NumeroNacidos
##    <date>             <dbl>
##  1 2018-01-01            10
##  2 2018-01-02            10
##  3 2018-01-03             6
##  4 2018-01-04             7
##  5 2018-01-05            14
##  6 2018-01-06            10
##  7 2018-01-07            11
##  8 2018-01-08             6
##  9 2018-01-09             7
## 10 2018-01-10            11
## # ℹ 1,966 more rows
…
