Chapter 9 Modelo estacional | Analisis para Nacidos Vivos en el hospital Manuel Uribe Angel
…
agrupnacidos <- DatosNacidos %>% 
                   group_by(FECHA, MULTIPLICIDAD.EMBARAZO) %>% 
                   summarize(NumeroPartos = n(), .groups = 'drop')

agrupnacidos$NumeroNacidos <- 
  ifelse(agrupnacidos$MULTIPLICIDAD.EMBARAZO == "DOBLE",agrupnacidos$NumeroPartos*2,agrupnacidos$NumeroPartos)

agrupnacidos_2 <- agrupnacidos %>% 
                   group_by(FECHA) %>% 
                   summarize(NumeroNacidos=sum(NumeroNacidos), .groups = 'drop')

print(agrupnacidos_2)

## # A tibble: 1,976 × 2
##    FECHA      NumeroNacidos
##    <date>             <dbl>
##  1 2018-01-01            10
##  2 2018-01-02            10
##  3 2018-01-03             6
##  4 2018-01-04             7
##  5 2018-01-05            14
##  6 2018-01-06            10
##  7 2018-01-07            11
##  8 2018-01-08             6
##  9 2018-01-09             7
## 10 2018-01-10            11
## # ℹ 1,966 more rows
…
